{
    "x":0,
    "type":"View",
    "selectedBox":2,
    "selecteID":17,
    "searchKey":"View",
    "props":{"width":828,"sceneColor":"#2eadad","height":1472},
    "nodeParent":-1,
    "maxID":56,
    "label":"View",
    "isOpen":true,
    "isDirectory":true,
    "isAniNode":true,
    "hasChild":true,
    "compId":2,
    "child":[
        {
            "x":15,
            "type":"Sprite",
            "searchKey":"Sprite",
            "props":{"y":0,"x":0,"width":832,"texture":"imgs/download3.png","height":1479},
            "nodeParent":2,
            "label":"Sprite",
            "isDirectory":false,
            "isAniNode":true,
            "hasChild":false,
            "compId":8,
            "child":[
                ]
        },
        {
            "x":15,
            "type":"Image",
            "searchKey":"Image",
            "props":{"skin":"imgs/mmp_336.png","centerY":-130,"centerX":0},
            "nodeParent":2,
            "label":"Image",
            "isDirectory":false,
            "isAniNode":true,
            "hasChild":false,
            "compId":3,
            "child":[
                ]
        },
        {
            "x":15,
            "type":"Sprite",
            "searchKey":"Sprite,starBtn",
            "props":{"y":748,"x":323,"var":"starBtn","texture":"imgs/mmp_653.png"},
            "nodeParent":2,
            "label":"starBtn",
            "isDirectory":false,
            "isAniNode":true,
            "hasChild":false,
            "compId":7,
            "child":[
                ]
        },
        {
            "x":15,
            "type":"Box",
            "searchKey":"Box",
            "props":{"x":10,"width":28416,"scaleY":0.5,"scaleX":0.5,"height":3473,"bottom":-21,"alpha":1},
            "nodeParent":2,
            "label":"Box",
            "isOpen":false,
            "isDirectory":true,
            "isAniNode":true,
            "hasChild":true,
            "compId":17,
            "child":[
                {
                    "type":"Sprite",
                    "searchKey":"Sprite",
                    "props":{"y":1898,"width":868,"texture":"截图/录制_2019_11_30_14_48_16_506.mp4.00_00_02_22.Still001.jpg","height":1557},
                    "nodeParent":17,
                    "label":"Sprite",
                    "isDirectory":false,
                    "isAniNode":true,
                    "hasChild":false,
                    "compId":18,
                    "child":[
                        ]
                },
                {
                    "type":"Sprite",
                    "searchKey":"Sprite",
                    "props":{"y":1898,"x":637,"width":868,"texture":"截图/录制_2019_11_30_14_48_16_506.mp4.00_00_03_20.Still002.jpg","height":1557},
                    "nodeParent":17,
                    "label":"Sprite",
                    "isDirectory":false,
                    "isAniNode":true,
                    "hasChild":false,
                    "compId":19,
                    "child":[
                        ]
                },
                {
                    "type":"Sprite",
                    "searchKey":"Sprite",
                    "props":{"y":1840,"x":1465,"width":868,"texture":"截图/录制_2019_11_30_14_48_16_506.mp4.00_00_04_23.Still003.jpg","height":1557},
                    "nodeParent":17,
                    "label":"Sprite",
                    "isDirectory":false,
                    "isAniNode":true,
                    "hasChild":false,
                    "compId":20,
                    "child":[
                        ]
                },
                {
                    "type":"Sprite",
                    "searchKey":"Sprite",
                    "props":{"y":1823,"x":1823,"width":868,"texture":"截图/录制_2019_11_30_14_48_16_506.mp4.00_00_07_05.Still005.jpg","height":1557},
                    "nodeParent":17,
                    "label":"Sprite",
                    "isDirectory":false,
                    "isAniNode":true,
                    "hasChild":false,
                    "compId":21,
                    "child":[
                        ]
                },
                {
                    "type":"Sprite",
                    "searchKey":"Sprite",
                    "props":{"y":1679,"x":2691,"width":868,"texture":"截图/录制_2019_11_30_14_48_16_506.mp4.00_00_08_15.Still006.jpg","height":1557},
                    "nodeParent":17,
                    "label":"Sprite",
                    "isDirectory":false,
                    "isAniNode":true,
                    "hasChild":false,
                    "compId":22,
                    "child":[
                        ]
                },
                {
                    "type":"Sprite",
                    "searchKey":"Sprite",
                    "props":{"y":1704,"x":3514,"width":868,"texture":"截图/录制_2019_11_30_14_48_16_506.mp4.00_00_09_20.Still007.jpg","height":1557},
                    "nodeParent":17,
                    "label":"Sprite",
                    "isDirectory":false,
                    "isAniNode":true,
                    "hasChild":false,
                    "compId":23,
                    "child":[
                        ]
                },
                {
                    "type":"Sprite",
                    "searchKey":"Sprite",
                    "props":{"y":1752,"x":4322,"width":868,"texture":"截图/录制_2019_11_30_14_48_16_506.mp4.00_00_12_14.Still008.jpg","height":1557},
                    "nodeParent":17,
                    "label":"Sprite",
                    "isDirectory":false,
                    "isAniNode":true,
                    "hasChild":false,
                    "compId":24,
                    "child":[
                        ]
                },
                {
                    "type":"Sprite",
                    "searchKey":"Sprite",
                    "props":{"y":1651,"x":5190,"width":868,"texture":"截图/录制_2019_11_30_14_48_16_506.mp4.00_00_13_22.Still009.jpg","height":1557},
                    "nodeParent":17,
                    "label":"Sprite",
                    "isDirectory":false,
                    "isAniNode":true,
                    "hasChild":false,
                    "compId":25,
                    "child":[
                        ]
                },
                {
                    "type":"Sprite",
                    "searchKey":"Sprite",
                    "props":{"y":1771,"x":5978,"width":868,"texture":"截图/录制_2019_11_30_14_48_16_506.mp4.00_00_14_24.Still010.jpg","height":1557},
                    "nodeParent":17,
                    "label":"Sprite",
                    "isDirectory":false,
                    "isAniNode":true,
                    "hasChild":false,
                    "compId":26,
                    "child":[
                        ]
                },
                {
                    "type":"Sprite",
                    "searchKey":"Sprite",
                    "props":{"y":1517,"x":6808,"width":868,"texture":"截图/录制_2019_11_30_14_48_16_506.mp4.00_00_15_18.Still011.jpg","height":1557},
                    "nodeParent":17,
                    "label":"Sprite",
                    "isDirectory":false,
                    "isAniNode":true,
                    "hasChild":false,
                    "compId":27,
                    "child":[
                        ]
                },
                {
                    "type":"Sprite",
                    "searchKey":"Sprite",
                    "props":{"y":1704,"x":7676,"width":868,"texture":"截图/录制_2019_11_30_14_48_16_506.mp4.00_00_16_16.Still012.jpg","height":1557},
                    "nodeParent":17,
                    "label":"Sprite",
                    "isDirectory":false,
                    "isAniNode":true,
                    "hasChild":false,
                    "compId":28,
                    "child":[
                        ]
                },
                {
                    "type":"Sprite",
                    "searchKey":"Sprite",
                    "props":{"y":1897,"x":8543,"width":868,"texture":"截图/录制_2019_11_30_14_48_16_506.mp4.00_00_17_19.Still013.jpg","height":1557},
                    "nodeParent":17,
                    "label":"Sprite",
                    "isDirectory":false,
                    "isAniNode":true,
                    "hasChild":false,
                    "compId":29,
                    "child":[
                        ]
                },
                {
                    "type":"Sprite",
                    "searchKey":"Sprite",
                    "props":{"y":2065,"x":9224,"width":755,"texture":"截图/录制_2019_11_30_14_48_16_506.mp4.00_00_19_17.Still014.jpg","height":1355},
                    "nodeParent":17,
                    "label":"Sprite",
                    "isDirectory":false,
                    "isAniNode":true,
                    "hasChild":false,
                    "compId":30,
                    "child":[
                        ]
                },
                {
                    "type":"Sprite",
                    "searchKey":"Sprite",
                    "props":{"y":1848,"x":9979,"width":868,"texture":"截图/录制_2019_11_30_14_48_16_506.mp4.00_00_20_15.Still015.jpg","height":1557},
                    "nodeParent":17,
                    "label":"Sprite",
                    "isDirectory":false,
                    "isAniNode":true,
                    "hasChild":false,
                    "compId":31,
                    "child":[
                        ]
                },
                {
                    "type":"Sprite",
                    "searchKey":"Sprite",
                    "props":{"y":1685,"x":10831,"width":868,"texture":"截图/录制_2019_11_30_14_48_16_506.mp4.00_00_21_18.Still016.jpg","height":1557},
                    "nodeParent":17,
                    "label":"Sprite",
                    "isDirectory":false,
                    "isAniNode":true,
                    "hasChild":false,
                    "compId":32,
                    "child":[
                        ]
                },
                {
                    "type":"Sprite",
                    "searchKey":"Sprite",
                    "props":{"y":1244,"x":11673,"width":868,"texture":"截图/录制_2019_11_30_14_48_16_506.mp4.00_00_22_14.Still017.jpg","height":1557},
                    "nodeParent":17,
                    "label":"Sprite",
                    "isDirectory":false,
                    "isAniNode":true,
                    "hasChild":false,
                    "compId":33,
                    "child":[
                        ]
                },
                {
                    "type":"Sprite",
                    "searchKey":"Sprite",
                    "props":{"y":1020,"x":12515,"width":868,"texture":"截图/录制_2019_11_30_14_48_16_506.mp4.00_00_23_14.Still018.jpg","height":1557},
                    "nodeParent":17,
                    "label":"Sprite",
                    "isDirectory":false,
                    "isAniNode":true,
                    "hasChild":false,
                    "compId":34,
                    "child":[
                        ]
                },
                {
                    "type":"Sprite",
                    "searchKey":"Sprite",
                    "props":{"y":723,"x":13356,"width":868,"texture":"截图/录制_2019_11_30_14_48_16_506.mp4.00_00_24_21.Still019.jpg","height":1557},
                    "nodeParent":17,
                    "label":"Sprite",
                    "isDirectory":false,
                    "isAniNode":true,
                    "hasChild":false,
                    "compId":35,
                    "child":[
                        ]
                },
                {
                    "type":"Sprite",
                    "searchKey":"Sprite",
                    "props":{"y":926,"x":14224,"width":868,"texture":"截图/录制_2019_11_30_14_48_16_506.mp4.00_00_26_22.Still020.jpg","height":1557},
                    "nodeParent":17,
                    "label":"Sprite",
                    "isDirectory":false,
                    "isAniNode":true,
                    "hasChild":false,
                    "compId":36,
                    "child":[
                        ]
                },
                {
                    "type":"Sprite",
                    "searchKey":"Sprite",
                    "props":{"y":593,"x":14861,"width":868,"texture":"截图/录制_2019_11_30_14_48_16_506.mp4.00_00_27_18.Still021.jpg","height":1557},
                    "nodeParent":17,
                    "label":"Sprite",
                    "isDirectory":false,
                    "isAniNode":true,
                    "hasChild":false,
                    "compId":37,
                    "child":[
                        ]
                },
                {
                    "type":"Sprite",
                    "searchKey":"Sprite",
                    "props":{"x":14008,"width":868,"texture":"截图/录制_2019_11_30_14_48_16_506.mp4.00_00_29_00.Still022.jpg","height":1557},
                    "nodeParent":17,
                    "label":"Sprite",
                    "isDirectory":false,
                    "isAniNode":true,
                    "hasChild":false,
                    "compId":38,
                    "child":[
                        ]
                },
                {
                    "type":"Sprite",
                    "searchKey":"Sprite",
                    "props":{"y":974,"x":14561,"width":868,"texture":"截图/录制_2019_11_30_14_48_16_506.mp4.00_00_29_23.Still023.jpg","height":1557},
                    "nodeParent":17,
                    "label":"Sprite",
                    "isDirectory":false,
                    "isAniNode":true,
                    "hasChild":false,
                    "compId":39,
                    "child":[
                        ]
                },
                {
                    "type":"Sprite",
                    "searchKey":"Sprite",
                    "props":{"y":953,"x":15269,"width":868,"texture":"截图/录制_2019_11_30_14_48_16_506.mp4.00_00_30_26.Still024.jpg","height":1557},
                    "nodeParent":17,
                    "label":"Sprite",
                    "isDirectory":false,
                    "isAniNode":true,
                    "hasChild":false,
                    "compId":40,
                    "child":[
                        ]
                },
                {
                    "type":"Sprite",
                    "searchKey":"Sprite",
                    "props":{"y":873,"x":16113,"width":868,"texture":"截图/录制_2019_11_30_14_48_16_506.mp4.00_00_31_29.Still025.jpg","height":1557},
                    "nodeParent":17,
                    "label":"Sprite",
                    "isDirectory":false,
                    "isAniNode":true,
                    "hasChild":false,
                    "compId":41,
                    "child":[
                        ]
                },
                {
                    "type":"Sprite",
                    "searchKey":"Sprite",
                    "props":{"y":801,"x":16817,"width":868,"texture":"截图/录制_2019_11_30_14_48_16_506.mp4.00_00_33_04.Still026.jpg","height":1557},
                    "nodeParent":17,
                    "label":"Sprite",
                    "isDirectory":false,
                    "isAniNode":true,
                    "hasChild":false,
                    "compId":42,
                    "child":[
                        ]
                },
                {
                    "type":"Sprite",
                    "searchKey":"Sprite",
                    "props":{"y":814,"x":17662,"width":868,"texture":"截图/录制_2019_11_30_14_48_16_506.mp4.00_00_34_23.Still027.jpg","height":1557},
                    "nodeParent":17,
                    "label":"Sprite",
                    "isDirectory":false,
                    "isAniNode":true,
                    "hasChild":false,
                    "compId":43,
                    "child":[
                        ]
                },
                {
                    "type":"Sprite",
                    "searchKey":"Sprite",
                    "props":{"y":812,"x":18288,"width":868,"texture":"截图/录制_2019_11_30_14_48_16_506.mp4.00_00_35_17.Still028.jpg","height":1557},
                    "nodeParent":17,
                    "label":"Sprite",
                    "isDirectory":false,
                    "isAniNode":true,
                    "hasChild":false,
                    "compId":44,
                    "child":[
                        ]
                },
                {
                    "type":"Sprite",
                    "searchKey":"Sprite",
                    "props":{"y":1070,"x":18806,"width":868,"texture":"截图/录制_2019_11_30_14_48_16_506.mp4.00_00_37_03.Still029.jpg","height":1557},
                    "nodeParent":17,
                    "label":"Sprite",
                    "isDirectory":false,
                    "isAniNode":true,
                    "hasChild":false,
                    "compId":45,
                    "child":[
                        ]
                },
                {
                    "type":"Sprite",
                    "searchKey":"Sprite",
                    "props":{"y":1324,"x":19664,"width":868,"texture":"截图/录制_2019_11_30_14_48_16_506.mp4.00_00_39_02.Still030.jpg","height":1557},
                    "nodeParent":17,
                    "label":"Sprite",
                    "isDirectory":false,
                    "isAniNode":true,
                    "hasChild":false,
                    "compId":46,
                    "child":[
                        ]
                },
                {
                    "type":"Sprite",
                    "searchKey":"Sprite",
                    "props":{"y":1171,"x":20359,"width":868,"texture":"截图/录制_2019_11_30_14_48_16_506.mp4.00_00_40_00.Still031.jpg","height":1557},
                    "nodeParent":17,
                    "label":"Sprite",
                    "isDirectory":false,
                    "isAniNode":true,
                    "hasChild":false,
                    "compId":47,
                    "child":[
                        ]
                },
                {
                    "type":"Sprite",
                    "searchKey":"Sprite",
                    "props":{"y":1542,"x":21776,"width":868,"texture":"截图/录制_2019_11_30_14_48_16_506.mp4.00_00_41_12.Still032.jpg","height":1557},
                    "nodeParent":17,
                    "label":"Sprite",
                    "isDirectory":false,
                    "isAniNode":true,
                    "hasChild":false,
                    "compId":48,
                    "child":[
                        ]
                },
                {
                    "type":"Sprite",
                    "searchKey":"Sprite",
                    "props":{"y":1417,"x":22644,"width":868,"texture":"截图/录制_2019_11_30_14_48_16_506.mp4.00_00_42_10.Still033.jpg","height":1557},
                    "nodeParent":17,
                    "label":"Sprite",
                    "isDirectory":false,
                    "isAniNode":true,
                    "hasChild":false,
                    "compId":49,
                    "child":[
                        ]
                },
                {
                    "type":"Sprite",
                    "searchKey":"Sprite",
                    "props":{"y":1137,"x":23512,"width":868,"texture":"截图/录制_2019_11_30_14_48_16_506.mp4.00_00_43_13.Still034.jpg","height":1557},
                    "nodeParent":17,
                    "label":"Sprite",
                    "isDirectory":false,
                    "isAniNode":true,
                    "hasChild":false,
                    "compId":50,
                    "child":[
                        ]
                },
                {
                    "type":"Sprite",
                    "searchKey":"Sprite",
                    "props":{"y":1045,"x":24333,"width":868,"texture":"截图/录制_2019_11_30_14_48_16_506.mp4.00_00_44_13.Still035.jpg","height":1557},
                    "nodeParent":17,
                    "label":"Sprite",
                    "isDirectory":false,
                    "isAniNode":true,
                    "hasChild":false,
                    "compId":51,
                    "child":[
                        ]
                },
                {
                    "type":"Sprite",
                    "searchKey":"Sprite",
                    "props":{"y":1799,"x":25201,"width":868,"texture":"截图/录制_2019_11_30_14_48_16_506.mp4.00_00_46_19.Still036.jpg","height":1557},
                    "nodeParent":17,
                    "label":"Sprite",
                    "isDirectory":false,
                    "isAniNode":true,
                    "hasChild":false,
                    "compId":52,
                    "child":[
                        ]
                },
                {
                    "type":"Sprite",
                    "searchKey":"Sprite",
                    "props":{"y":1916,"x":26059,"width":868,"texture":"截图/录制_2019_11_30_14_48_16_506.mp4.00_00_47_24.Still037.jpg","height":1557},
                    "nodeParent":17,
                    "label":"Sprite",
                    "isDirectory":false,
                    "isAniNode":true,
                    "hasChild":false,
                    "compId":53,
                    "child":[
                        ]
                },
                {
                    "type":"Sprite",
                    "searchKey":"Sprite",
                    "props":{"y":1848,"x":26914,"width":868,"texture":"截图/录制_2019_11_30_14_48_16_506.mp4.00_00_48_26.Still038.jpg","height":1557},
                    "nodeParent":17,
                    "label":"Sprite",
                    "isDirectory":false,
                    "isAniNode":true,
                    "hasChild":false,
                    "compId":54,
                    "child":[
                        ]
                },
                {
                    "type":"Sprite",
                    "searchKey":"Sprite",
                    "props":{"y":1840,"x":27528,"width":868,"texture":"截图/录制_2019_11_30_14_48_16_506.mp4.00_00_50_02.Still039.jpg","height":1557},
                    "nodeParent":17,
                    "label":"Sprite",
                    "isDirectory":false,
                    "isAniNode":true,
                    "hasChild":false,
                    "compId":55,
                    "child":[
                        ]
                }],
            "$HIDDEN":false
        }],
    "animations":[
        {
            "nodes":[
                ],
            "name":"ani1",
            "id":1,
            "frameRate":24,
            "action":0
        }]
}